{
  "hosting": {
    "public": "public",
    "site": "patekvpatek",
    "ignore": [
      "firebase.json",
      "**/.*",
      "**/node_modules/**"
    ],
    "headers": [
      {
        "source": "@(js|css)/*.@(js|css)",
        "headers": [
          {
            "key": "Cache-Control",
            "value": "max-age=2628000"
          }
        ]
      },
      {
        "source": "img/**",
        "headers": [
          {
            "key": "Cache-Control",
            "value": "max-age=86400"
          }
        ]
      },
      {
        "regex": "^/(?:[^i]|i[^m]|im[^g])[^/]*/.*[.](?:jpg|jpeg|png|webp)$",
        "headers": [
          {
            "key": "Cache-Control",
            "value": "max-age=2628000"
          }
        ]
      }
    ]
  }
}
